<svg xmlns="http://www.w3.org/2000/svg" viewBox="0 0 86 86">
    <defs>
        <style>
            .cls-1{fill:#ef1f24;}.cls-2{fill:none;stroke:#fff;stroke-linecap:round;stroke-linejoin:round;stroke-width:3px;}
        </style>
    </defs>
    <g id="Calque_2" data-name="Calque 2">
        <g id="Calque_1-2" data-name="Calque 1">
            <circle class="cls-1" cx="43" cy="43" r="43"/>
            <line class="cls-2" x1="25.5" y1="42.99" x2="60.5" y2="42.99"/>
            <path class="cls-2" d="M43,27.5,60.5,43,43,58.5"/>
        </g>
    </g>
</svg>